eps_r	= 60
tan_d	= 0.0
r_min	= 2.0
r_max	= 10.0
del_r	= 0.005
del_S11	= 0.02
BNUM	= 11
ORD	= 6
APPROX	= yes
eps_min = 40
eps_max = 90
f	= 10.0
a	= 22.86
x_o	= 0.0 
ACC	= 0.001
LEN	= 0.01
NUMIT	= 200
TRIALS = 1000000
--------------------------------------------------------------------------
mpirun was unable to launch the specified application as it could not access
or execute an executable:

Executable: ./MonteCarlo
Node: wn50

while attempting to start process rank 0.
--------------------------------------------------------------------------
60 total processes failed to start
